﻿
DisplayName "MS Fish Mid Deck"



EVENT   1
 PAGE   1
  281(0)
  If(6,-1,8)
   250(bytes(0x04,0x08,0x6f,0x3a,0x0c,0x52,0x50,0x47,0x3a,0x3a,0x53,0x45,0x08,0x3a,0x0a,0x40,0x6e,0x61,0x6d,0x65,0x49,0x22,0x09,0x4d,0x6f,0x76,0x65,0x06,0x3a,0x06,0x45,0x54,0x3a,0x0b,0x40,0x70,0x69,0x74,0x63,0x68,0x69,0x69,0x3a,0x0c,0x40,0x76,0x6f,0x6c,0x75,0x6d,0x65,0x69,0x55))
   TeleportPlayer(0,685,13,27,0,0)
   0()
  EndIf()
  0()



EVENT   2
 PAGE   1
  281(0)
  If(6,-1,8)
   250(bytes(0x04,0x08,0x6f,0x3a,0x0c,0x52,0x50,0x47,0x3a,0x3a,0x53,0x45,0x08,0x3a,0x0a,0x40,0x6e,0x61,0x6d,0x65,0x49,0x22,0x09,0x4d,0x6f,0x76,0x65,0x06,0x3a,0x06,0x45,0x54,0x3a,0x0b,0x40,0x70,0x69,0x74,0x63,0x68,0x69,0x69,0x3a,0x0c,0x40,0x76,0x6f,0x6c,0x75,0x6d,0x65,0x69,0x55))
   TeleportPlayer(0,685,13,27,0,0)
   0()
  EndIf()
  0()



EVENT   3
 PAGE   1
  281(0)
  If(6,-1,2)
   250(bytes(0x04,0x08,0x6f,0x3a,0x0c,0x52,0x50,0x47,0x3a,0x3a,0x53,0x45,0x08,0x3a,0x0a,0x40,0x6e,0x61,0x6d,0x65,0x49,0x22,0x09,0x4d,0x6f,0x76,0x65,0x06,0x3a,0x06,0x45,0x54,0x3a,0x0b,0x40,0x70,0x69,0x74,0x63,0x68,0x69,0x69,0x3a,0x0c,0x40,0x76,0x6f,0x6c,0x75,0x6d,0x65,0x69,0x55))
   TeleportPlayer(0,701,20,16,0,0)
   0()
  EndIf()
  0()



EVENT   4
 PAGE   1
  281(0)
  If(6,-1,2)
   250(bytes(0x04,0x08,0x6f,0x3a,0x0c,0x52,0x50,0x47,0x3a,0x3a,0x53,0x45,0x08,0x3a,0x0a,0x40,0x6e,0x61,0x6d,0x65,0x49,0x22,0x09,0x4d,0x6f,0x76,0x65,0x06,0x3a,0x06,0x45,0x54,0x3a,0x0b,0x40,0x70,0x69,0x74,0x63,0x68,0x69,0x69,0x3a,0x0c,0x40,0x76,0x6f,0x6c,0x75,0x6d,0x65,0x69,0x55))
   TeleportPlayer(0,701,21,16,0,0)
   0()
  EndIf()
  0()



EVENT   5
 PAGE   1
  ShowMessageFace("",0,0,2,1)
  ShowMessage("\\n<Cow>Moo~!")
  If(0,6,0)
   ShowMessageFace("sonia_fc2",2,0,2,2)
   ShowMessage("\\n<Sonya>This cow...")
   ShowMessage("Let's just leave it alone.")
   0()
  EndIf()
  If(4,141,0)
   ShowMessageFace("mino_fc1",2,0,2,3)
   ShowMessage("\\n<Mina>Can we at least eat it? \nWhat a waste...")
   0()
  EndIf()
  0()



EVENT   6
 PAGE   1
  ShowMessageFace("dog_fc1",0,0,2,1)
  ShowMessage("\\n<Wow>I'm just a dog.\nThe pirates caught me a long time ago...")
  ShowMessageFace("tatunoko_k_fc1",0,0,2,2)
  ShowMessage("\\n<Sea Horse Marine>All right, the navy will protect you.")
  ShowMessageFace("k_mermaid_fc1",2,0,2,3)
  ShowMessage("\\n<Mermaid Pirate>You idiot! Betrayer!")
  0()



EVENT   7
 PAGE   1
  281(0)
  250(bytes(0x04,0x08,0x6f,0x3a,0x0c,0x52,0x50,0x47,0x3a,0x3a,0x53,0x45,0x08,0x3a,0x0a,0x40,0x6e,0x61,0x6d,0x65,0x49,0x22,0x09,0x4d,0x6f,0x76,0x65,0x06,0x3a,0x06,0x45,0x54,0x3a,0x0b,0x40,0x70,0x69,0x74,0x63,0x68,0x69,0x69,0x3a,0x0c,0x40,0x76,0x6f,0x6c,0x75,0x6d,0x65,0x69,0x55))
  TeleportPlayer(0,685,7,43,0,0)
  0()



EVENT   8
 PAGE   1
  281(0)
  250(bytes(0x04,0x08,0x6f,0x3a,0x0c,0x52,0x50,0x47,0x3a,0x3a,0x53,0x45,0x08,0x3a,0x0a,0x40,0x6e,0x61,0x6d,0x65,0x49,0x22,0x09,0x4d,0x6f,0x76,0x65,0x06,0x3a,0x06,0x45,0x54,0x3a,0x0b,0x40,0x70,0x69,0x74,0x63,0x68,0x69,0x69,0x3a,0x0c,0x40,0x76,0x6f,0x6c,0x75,0x6d,0x65,0x69,0x55))
  TeleportPlayer(0,685,7,43,0,0)
  0()



EVENT   9
 PAGE   1
  ShowMessageFace("dog_fc1",0,0,2,1)
  ShowMessage("\\n<Wow>I'm just a dog.\nThe pirates caught me a long time ago...")
  ShowMessageFace("tatunoko_k_fc1",0,0,2,2)
  ShowMessage("\\n<Sea Horse Marine>All right, the navy will protect you.")
  ShowMessageFace("k_mermaid_fc1",2,0,2,3)
  ShowMessage("\\n<Mermaid Pirate>You idiot! Betrayer!")
  0()



EVENT   10
 PAGE   1
  ShowMessageFace("umiusi_k_fc1",0,0,2,1)
  ShowMessage("\\n<Slug Marine>I'll show you the pride of the navy!")
  ShowMessageFace("k_mermaid_fc1",0,0,2,2)
  ShowMessage("\\n<Mermaid Pirate>We pirates have our pride too!")
  0()



EVENT   11
 PAGE   1
  ShowMessageFace("",0,0,2,1)
  ShowMessage("[GALLEY: CAPTAIN KEEP OUT] is written here...")
  0()



EVENT   12
 PAGE   1
  ShowMessageFace("k_mermaid_fc1",0,0,2,1)
  ShowMessage("\\n<Mermaid Pirate>I won't let you get in the food storage!")
  If(4,70,0)
   ShowMessageFace("nezumi_fc1",0,0,2,2)
   ShowMessage("\\n<Ratty>Let's snitch some food!")
   0()
  EndIf()
  ChangeSwitch(81,81,0)
  Battle(0,581,false,false)
  ChangeSwitch(81,81,1)
  ChangeSelfSwitch("A",0)
  ShowMessageFace("k_mermaid_fc1",2,0,2,3)
  ShowMessage("\\n<Mermaid Pirate>Please, don't snitch any food...")
  0()
 PAGE   2
  // condition: self-switch A is ON
  0()



EVENT   13
 PAGE   1
  ShowMessageFace("",0,0,2,1)
   ShowMessage("[FOOD STORAGE: CAPTAIN KEEP OUT] is written here...")
  0()



EVENT   14
 PAGE   1
  ShowMessageFace("tatunoko_k_fc1",0,0,2,1)
  ShowMessage("\\n<Sea Horse Marine>Ya! Ya! Ya!")
  ShowMessageFace("k_mermaid_fc1",0,0,2,2)
  ShowMessage("\\n<Mermaid Pirate>The Fishy Pirates won't be defeated!")
  0()



EVENT   15
 PAGE   1
  ShowMessageFace("k_mermaid_fc1",0,0,2,1)
  ShowMessage("\\n<Mermaid Pirate>I won't lose...!")
  ShowMessageFace("umiusi_k_fc1",0,0,2,2)
  ShowMessage("\\n<Slug Marine>We've got it handled here! Teiiya!")
  ShowMessageFace("tatunoko_k_fc1",0,0,2,3)
  ShowMessage("\\n<Sea Horse Marine>You are under arrest!")
  0()



EVENT   16
 PAGE   1
  ShowMessageFace("k_mermaid_fc1",0,0,2,1)
  ShowMessage("\\n<Mermaid Pirate>I won't lose...!")
  ShowMessageFace("umiusi_k_fc1",0,0,2,2)
  ShowMessage("\\n<Slug Marine>We've got it handled here! Teiiya!")
  ShowMessageFace("tatunoko_k_fc1",0,0,2,3)
  ShowMessage("\\n<Sea Horse Marine>You are under arrest!")
  0()



EVENT   17
 PAGE   1
  If(2,"A",1)
   ChangeSelfSwitch("A",0)
   ShowMessageFace("tatunoko_k_fc1",1,0,2,1)
   ShowMessage("\\n<Sea Horse Marine>Thank you!")
   ShowMessage("Take this as reward!")
   250(bytes(0x04,0x08,0x6f,0x3a,0x0c,0x52,0x50,0x47,0x3a,0x3a,0x53,0x45,0x08,0x3a,0x0a,0x40,0x6e,0x61,0x6d,0x65,0x49,0x22,0x0a,0x49,0x74,0x65,0x6d,0x31,0x06,0x3a,0x06,0x45,0x54,0x3a,0x0b,0x40,0x70,0x69,0x74,0x63,0x68,0x69,0x69,0x3a,0x0c,0x40,0x76,0x6f,0x6c,0x75,0x6d,0x65,0x69,0x55))
   ChangeInventory_Item(433,0,0,1)
   0()
  Else()
   ShowMessageFace("tatunoko_k_fc1",1,0,2,2)
   ShowMessage("\\n<Sea Horse Marine>Thank you!")
   0()
  EndIf()
  0()



EVENT   18
 PAGE   1
  ShowMessageFace("k_mermaid_fc1",0,0,2,1)
  ShowMessage("\\n<Mermaid Pirate>We've got this one surrounded! Everyone, attack all at once!")
  ShowMessageFace("tatunoko_k_fc1",2,0,2,2)
  ShowMessage("\\n<Sea Horse Marine>Help!")
  If(4,152,0)
   ShowMessageFace("lamias_fc2",4,0,2,3)
   ShowMessage("\\n<Nefertiti Lamias>We've come to the rescue, now step back!")
   0()
  EndIf()
  ChangeSwitch(81,81,0)
  Battle(0,582,false,false)
  ChangeSwitch(81,81,1)
  ChangeSwitch(2177,2177,0)
  ShowMessageFace("k_mermaid_fc1",2,0,2,4)
  ShowMessage("\\n<Mermaid Pirate>It's mean to gang up on us like this...")
  0()
 PAGE   2
  // condition: switch 2177 is ON
  0()



EVENT   19
 PAGE   1
  ShowMessageFace("umiusi_k_fc1",0,0,2,1)
  ShowMessage("\\n<Slug Marine>I'll show you the pride of the navy!")
  ShowMessageFace("k_mermaid_fc1",0,0,2,2)
  ShowMessage("\\n<Mermaid Pirate>We pirates have our pride too!")
  0()



EVENT   20
 PAGE   1
  250(bytes(0x04,0x08,0x6f,0x3a,0x0c,0x52,0x50,0x47,0x3a,0x3a,0x53,0x45,0x08,0x3a,0x0a,0x40,0x6e,0x61,0x6d,0x65,0x49,0x22,0x0a,0x49,0x74,0x65,0x6d,0x31,0x06,0x3a,0x06,0x45,0x54,0x3a,0x0b,0x40,0x70,0x69,0x74,0x63,0x68,0x69,0x69,0x3a,0x0c,0x40,0x76,0x6f,0x6c,0x75,0x6d,0x65,0x69,0x55))
  ChangeSelfSwitch("A",0)
  ChangeInventory_Item(313,0,0,3)
  0()
 PAGE   2
  // condition: self-switch A is ON
  0()



EVENT   21
 PAGE   1
  250(bytes(0x04,0x08,0x6f,0x3a,0x0c,0x52,0x50,0x47,0x3a,0x3a,0x53,0x45,0x08,0x3a,0x0a,0x40,0x6e,0x61,0x6d,0x65,0x49,0x22,0x0a,0x49,0x74,0x65,0x6d,0x31,0x06,0x3a,0x06,0x45,0x54,0x3a,0x0b,0x40,0x70,0x69,0x74,0x63,0x68,0x69,0x69,0x3a,0x0c,0x40,0x76,0x6f,0x6c,0x75,0x6d,0x65,0x69,0x55))
  ChangeSelfSwitch("A",0)
  ChangeInventory_Item(338,0,0,2)
  0()
 PAGE   2
  // condition: self-switch A is ON
  0()



EVENT   22
 PAGE   1
  ShowMessageFace("tatunoko_k_fc1",0,0,2,1)
  ShowMessage("\\n<Sea Horse Marine>Ya! Ya! Ya!")
  ShowMessageFace("k_mermaid_fc1",0,0,2,2)
  ShowMessage("\\n<Mermaid Pirate>The Fishy Pirates won't be defeated!")
  0()



EVENT   23
 PAGE   1
  ShowMessageFace("k_mermaid_fc1",0,0,2,1)
  ShowMessage("\\n<Mermaid Pirate>I won't lose...!")
  ShowMessageFace("umiusi_k_fc1",0,0,2,2)
  ShowMessage("\\n<Slug Marine>We've got it handled here! Teiiya!")
  ShowMessageFace("tatunoko_k_fc1",0,0,2,3)
  ShowMessage("\\n<Sea Horse Marine>You are under arrest!")
  0()



EVENT   24
 PAGE   1
  ShowMessageFace("k_mermaid_fc1",0,0,2,1)
  ShowMessage("\\n<Mermaid Pirate>We've got this one surrounded! Everyone, attack all at once!")
  ShowMessageFace("tatunoko_k_fc1",2,0,2,2)
  ShowMessage("\\n<Sea Horse Marine>Help!")
  If(4,152,0)
   ShowMessageFace("lamias_fc2",4,0,2,3)
   ShowMessage("\\n<Nefertiti Lamias>We've come to the rescue, now step back!")
   0()
  EndIf()
  ChangeSwitch(81,81,0)
  Battle(0,582,false,false)
  ChangeSwitch(81,81,1)
  ChangeSwitch(2177,2177,0)
  ShowMessageFace("k_mermaid_fc1",2,0,2,4)
  ShowMessage("\\n<Mermaid Pirate>It's mean to gang up on us like this...")
  0()
 PAGE   2
  // condition: switch 2177 is ON
  0()



EVENT   25
 PAGE   1
  ShowMessageFace("k_mermaid_fc1",0,0,2,1)
  ShowMessage("\\n<Mermaid Pirate>We've got this one surrounded! Everyone, attack all at once!")
  ShowMessageFace("tatunoko_k_fc1",2,0,2,2)
  ShowMessage("\\n<Sea Horse Marine>Help!")
  If(4,152,0)
   ShowMessageFace("lamias_fc2",4,0,2,3)
   ShowMessage("\\n<Nefertiti Lamias>We've come to the rescue, now step back!")
   0()
  EndIf()
  ChangeSwitch(81,81,0)
  Battle(0,582,false,false)
  ChangeSwitch(81,81,1)
  ChangeSwitch(2177,2177,0)
  ShowMessageFace("k_mermaid_fc1",2,0,2,4)
  ShowMessage("\\n<Mermaid Pirate>It's mean to gang up on us like this...")
  0()
 PAGE   2
  // condition: switch 2177 is ON
  0()



EVENT   26
 PAGE   1
  250(bytes(0x04,0x08,0x6f,0x3a,0x0c,0x52,0x50,0x47,0x3a,0x3a,0x53,0x45,0x08,0x3a,0x0a,0x40,0x6e,0x61,0x6d,0x65,0x49,0x22,0x0a,0x49,0x74,0x65,0x6d,0x31,0x06,0x3a,0x06,0x45,0x54,0x3a,0x0b,0x40,0x70,0x69,0x74,0x63,0x68,0x69,0x69,0x3a,0x0c,0x40,0x76,0x6f,0x6c,0x75,0x6d,0x65,0x69,0x55))
  ChangeSelfSwitch("A",0)
  ChangeInventory_Item(319,0,0,3)
  0()
 PAGE   2
  // condition: self-switch A is ON
  0()



EVENT   27
 PAGE   1
  0()



EVENT   28
 PAGE   1
  ShowMessageFace("tatunoko_k_fc1",1,0,2,1)
  ShowMessage("\\n<Sea Horse Marine>All right, overwhelm them with numbers!")
  ShowMessageFace("k_mermaid_fc1",2,0,2,2)
  ShowMessage("\\n<Mermaid Pirate>If this were one-on-one, there's no way I'd lose!")
  0()



EVENT   29
 PAGE   1
  ShowMessageFace("tatunoko_k_fc1",1,0,2,1)
  ShowMessage("\\n<Sea Horse Marine>All right, overwhelm them with numbers!")
  ShowMessageFace("k_mermaid_fc1",2,0,2,2)
  ShowMessage("\\n<Mermaid Pirate>If this were one-on-one, there's no way I'd lose!")
  0()



EVENT   30
 PAGE   1
  ShowMessageFace("tatunoko_k_fc1",1,0,2,1)
  ShowMessage("\\n<Sea Horse Marine>All right, overwhelm them with numbers!")
  ShowMessageFace("k_mermaid_fc1",2,0,2,2)
  ShowMessage("\\n<Mermaid Pirate>If this were one-on-one, there's no way I'd lose!")
  0()



EVENT   31
 PAGE   1
  250(bytes(0x04,0x08,0x6f,0x3a,0x0c,0x52,0x50,0x47,0x3a,0x3a,0x53,0x45,0x08,0x3a,0x0a,0x40,0x6e,0x61,0x6d,0x65,0x49,0x22,0x0a,0x49,0x74,0x65,0x6d,0x31,0x06,0x3a,0x06,0x45,0x54,0x3a,0x0b,0x40,0x70,0x69,0x74,0x63,0x68,0x69,0x69,0x3a,0x0c,0x40,0x76,0x6f,0x6c,0x75,0x6d,0x65,0x69,0x55))
  ChangeSelfSwitch("A",0)
  ChangeInventory_Item(320,0,0,4)
  0()
 PAGE   2
  // condition: self-switch A is ON
  0()



EVENT   32
 PAGE   1
  250(bytes(0x04,0x08,0x6f,0x3a,0x0c,0x52,0x50,0x47,0x3a,0x3a,0x53,0x45,0x08,0x3a,0x0a,0x40,0x6e,0x61,0x6d,0x65,0x49,0x22,0x0a,0x49,0x74,0x65,0x6d,0x31,0x06,0x3a,0x06,0x45,0x54,0x3a,0x0b,0x40,0x70,0x69,0x74,0x63,0x68,0x69,0x69,0x3a,0x0c,0x40,0x76,0x6f,0x6c,0x75,0x6d,0x65,0x69,0x55))
  ChangeSelfSwitch("A",0)
  ChangeInventory_Item(322,0,0,4)
  0()
 PAGE   2
  // condition: self-switch A is ON
  0()



EVENT   33
 PAGE   1
  250(bytes(0x04,0x08,0x6f,0x3a,0x0c,0x52,0x50,0x47,0x3a,0x3a,0x53,0x45,0x08,0x3a,0x0a,0x40,0x6e,0x61,0x6d,0x65,0x49,0x22,0x0a,0x49,0x74,0x65,0x6d,0x31,0x06,0x3a,0x06,0x45,0x54,0x3a,0x0b,0x40,0x70,0x69,0x74,0x63,0x68,0x69,0x69,0x3a,0x0c,0x40,0x76,0x6f,0x6c,0x75,0x6d,0x65,0x69,0x55))
  ChangeSelfSwitch("A",0)
  ChangeInventory_Item(323,0,0,2)
  0()
 PAGE   2
  // condition: self-switch A is ON
  0()



EVENT   34
 PAGE   1
  250(bytes(0x04,0x08,0x6f,0x3a,0x0c,0x52,0x50,0x47,0x3a,0x3a,0x53,0x45,0x08,0x3a,0x0a,0x40,0x6e,0x61,0x6d,0x65,0x49,0x22,0x0a,0x49,0x74,0x65,0x6d,0x31,0x06,0x3a,0x06,0x45,0x54,0x3a,0x0b,0x40,0x70,0x69,0x74,0x63,0x68,0x69,0x69,0x3a,0x0c,0x40,0x76,0x6f,0x6c,0x75,0x6d,0x65,0x69,0x55))
  ChangeSelfSwitch("A",0)
  ChangeInventory_Item(359,0,0,4)
  0()
 PAGE   2
  // condition: self-switch A is ON
  0()



EVENT   35
 PAGE   1
  250(bytes(0x04,0x08,0x6f,0x3a,0x0c,0x52,0x50,0x47,0x3a,0x3a,0x53,0x45,0x08,0x3a,0x0a,0x40,0x6e,0x61,0x6d,0x65,0x49,0x22,0x0a,0x49,0x74,0x65,0x6d,0x31,0x06,0x3a,0x06,0x45,0x54,0x3a,0x0b,0x40,0x70,0x69,0x74,0x63,0x68,0x69,0x69,0x3a,0x0c,0x40,0x76,0x6f,0x6c,0x75,0x6d,0x65,0x69,0x55))
  ChangeSelfSwitch("A",0)
  ChangeInventory_Item(306,0,0,3)
  0()
 PAGE   2
  // condition: self-switch A is ON
  0()



EVENT   36
 PAGE   1
  250(bytes(0x04,0x08,0x6f,0x3a,0x0c,0x52,0x50,0x47,0x3a,0x3a,0x53,0x45,0x08,0x3a,0x0a,0x40,0x6e,0x61,0x6d,0x65,0x49,0x22,0x0a,0x49,0x74,0x65,0x6d,0x31,0x06,0x3a,0x06,0x45,0x54,0x3a,0x0b,0x40,0x70,0x69,0x74,0x63,0x68,0x69,0x69,0x3a,0x0c,0x40,0x76,0x6f,0x6c,0x75,0x6d,0x65,0x69,0x55))
  ChangeSelfSwitch("A",0)
  ChangeInventory_Item(307,0,0,4)
  0()
 PAGE   2
  // condition: self-switch A is ON
  0()



EVENT   37
 PAGE   1
  250(bytes(0x04,0x08,0x6f,0x3a,0x0c,0x52,0x50,0x47,0x3a,0x3a,0x53,0x45,0x08,0x3a,0x0a,0x40,0x6e,0x61,0x6d,0x65,0x49,0x22,0x0a,0x49,0x74,0x65,0x6d,0x31,0x06,0x3a,0x06,0x45,0x54,0x3a,0x0b,0x40,0x70,0x69,0x74,0x63,0x68,0x69,0x69,0x3a,0x0c,0x40,0x76,0x6f,0x6c,0x75,0x6d,0x65,0x69,0x55))
  ChangeSelfSwitch("A",0)
  ChangeInventory_Item(434,0,0,5)
  0()
 PAGE   2
  // condition: self-switch A is ON
  0()



EVENT   38
 PAGE   1
  250(bytes(0x04,0x08,0x6f,0x3a,0x0c,0x52,0x50,0x47,0x3a,0x3a,0x53,0x45,0x08,0x3a,0x0a,0x40,0x6e,0x61,0x6d,0x65,0x49,0x22,0x0a,0x49,0x74,0x65,0x6d,0x31,0x06,0x3a,0x06,0x45,0x54,0x3a,0x0b,0x40,0x70,0x69,0x74,0x63,0x68,0x69,0x69,0x3a,0x0c,0x40,0x76,0x6f,0x6c,0x75,0x6d,0x65,0x69,0x55))
  ChangeSelfSwitch("A",0)
  ChangeInventory_Item(436,0,0,3)
  0()
 PAGE   2
  // condition: self-switch A is ON
  0()



EVENT   39
 PAGE   1
  250(bytes(0x04,0x08,0x6f,0x3a,0x0c,0x52,0x50,0x47,0x3a,0x3a,0x53,0x45,0x08,0x3a,0x0a,0x40,0x6e,0x61,0x6d,0x65,0x49,0x22,0x0a,0x49,0x74,0x65,0x6d,0x31,0x06,0x3a,0x06,0x45,0x54,0x3a,0x0b,0x40,0x70,0x69,0x74,0x63,0x68,0x69,0x69,0x3a,0x0c,0x40,0x76,0x6f,0x6c,0x75,0x6d,0x65,0x69,0x55))
  ChangeSelfSwitch("A",0)
  ChangeInventory_Item(341,0,0,3)
  0()
 PAGE   2
  // condition: self-switch A is ON
  0()
