﻿// EVENT 0119
Name "プロメスティン転種"

241(bytes(0x04,0x08,0x6f,0x3a,0x0d,0x52,0x50,0x47,0x3a,0x3a,0x42,0x47,0x4d,0x08,0x3a,0x0a,0x40,0x6e,0x61,0x6d,0x65,0x49,0x22,0x0a,0x73,0x74,0x65,0x69,0x6e,0x06,0x3a,0x06,0x45,0x54,0x3a,0x0c,0x40,0x76,0x6f,0x6c,0x75,0x6d,0x65,0x69,0x69,0x3a,0x0b,0x40,0x70,0x69,0x74,0x63,0x68,0x69,0x69))
PictureDisplay(5,"80_stein_st32",0,0,0,0,100,100,0,0)
PictureMove(5,null,0,0,0,0,100,100,255,0,30,true)
If(0,1920,1)
 ChangeSwitch(1920,1920,0)
 ShowMessageFace("stein_fc2",1,0,2,1)
 ShowMessage("【プロメスティン】")
 ShowMessage("にんじんエキスですが、さらに完成度を高めました！")
 ShowMessageFace("stein_fc2",1,0,2,2)
 ShowMessage("【プロメスティン】")
 ShowMessage("種族「スライム」のレベルが10に達していれば、")
 ShowMessage("魔獣に転種する事ができますよ♪")
 ShowMessageFace("bunnyslime_fc1",0,0,2,3)
 ShowMessage("【うさ】")
 ShowMessage("わーい♪")
 ShowMessage("うさぎ友達ができたら、うれしいな♪")
 DefineLabel("ループ")
 0()
EndIf()
If(0,1921,1)
 If(12,"actor_class_level_over?(167, 214, 1)")
  If(0,2141,0)
   If(0,2142,0)
    If(0,2143,0)
     If(0,2144,0)
      ChangeSwitch(1921,1921,0)
      ShowMessageFace("stein_fc2",1,0,2,4)
      ShowMessage("【プロメスティン】")
      ShowMessage("ところで……最近、ルシアさんと共同研究をしているのです。")
      ShowMessage("フェアリー化の技術を、もっと広範化できないかと。")
      ShowMessageFace("lusia_fc1",0,0,2,5)
      ShowMessage("【ルシア】")
      ShowMessage("私の体では、エレメント化の実験に成功しましたが……")
      ShowMessage("他種族への応用を計画しているのですよ。")
      ShowMessageFace("stein_fc2",1,0,2,6)
      ShowMessage("【プロメスティン】")
      ShowMessage("研究の結果、人魚の肉体はエレメントとの親和性が高いのです。")
      ShowMessage("より深く、自然のエネルギーを宿した個体がいれば……")
      ShowMessageFace("lusia_fc1",0,0,2,7)
      ShowMessage("【ルシア】")
      ShowMessage("ええ、エレメントがすでに根付いた人魚で実験すれば……")
      ShowMessage("妖精化の研究が格段に進歩するのですが……")
      ShowMessageFace("namazu_fc1",2,0,2,8)
      ShowMessage("【ギギ】")
      ShowMessage("おっと急用を思い出した、儂はこれにて……")
      ShowMessageFace("stein_fc2",2,0,2,9)
      ShowMessage("【プロメスティン】")
      ShowMessage("あっ、逃げられます！")
      ShowMessage("捕らえましょう、ルシアさん！")
      ShowMessageFace("lusia_fc1",1,0,2,10)
      ShowMessage("【ルシア】")
      ShowMessage("逃がしませんよ、私の触手で……！")
      241(bytes(0x04,0x08,0x6f,0x3a,0x0d,0x52,0x50,0x47,0x3a,0x3a,0x42,0x47,0x4d,0x08,0x3a,0x0a,0x40,0x6e,0x61,0x6d,0x65,0x49,0x22,0x10,0x73,0x63,0x65,0x6e,0x65,0x5f,0x63,0x6f,0x6d,0x69,0x32,0x06,0x3a,0x06,0x45,0x54,0x3a,0x0c,0x40,0x76,0x6f,0x6c,0x75,0x6d,0x65,0x69,0x69,0x3a,0x0b,0x40,0x70,0x69,0x74,0x63,0x68,0x69,0x69))
      250(bytes(0x04,0x08,0x6f,0x3a,0x0c,0x52,0x50,0x47,0x3a,0x3a,0x53,0x45,0x08,0x3a,0x0a,0x40,0x6e,0x61,0x6d,0x65,0x49,0x22,0x16,0x6d,0x6f,0x6e,0x5f,0x65,0x72,0x6f,0x5f,0x6d,0x61,0x6b,0x69,0x74,0x75,0x6b,0x69,0x33,0x06,0x3a,0x06,0x45,0x54,0x3a,0x0b,0x40,0x70,0x69,0x74,0x63,0x68,0x69,0x69,0x3a,0x0c,0x40,0x76,0x6f,0x6c,0x75,0x6d,0x65,0x69,0x69))
      ShowMessageFace("namazu_fc1",2,0,2,11)
      ShowMessage("【ギギ】")
      ShowMessage("のわー！　離せー！")
      ShowMessageFace("stein_fc2",1,0,2,12)
      ShowMessage("【プロメスティン】")
      ShowMessage("研究のために犠牲になって下さい！")
      ShowMessage("さあさあ、腕を出すのです！")
      ShowMessageFace("lusia_fc1",1,0,2,13)
      ShowMessage("【ルシア】")
      ShowMessage("科学とは、宗教以上に生け贄を必要とするのです！")
      ShowMessage("観念して、実験台になりなさい！")
      ShowMessageFace("namazu_fc1",2,0,2,14)
      ShowMessage("【ギギ】")
      ShowMessage("やめれー！")
      221()
      ShowMessageFace("",0,0,2,15)
      ShowMessage("プロメスティンとルシアは、ギギに怪しいエキスを注射した！")
      222()
      ShowMessageFace("stein_fc2",0,0,2,16)
      ShowMessage("【プロメスティン】")
      ShowMessage("……………………")
      ShowMessageFace("lusia_fc1",0,0,2,17)
      ShowMessage("【ルシア】")
      ShowMessage("……………………")
      ShowMessageFace("namazu_fc1",0,0,2,18)
      ShowMessage("【ギギ】")
      ShowMessage("……………………")
      ShowMessageFace("namazu_fc1",0,0,2,19)
      ShowMessage("【ギギ】")
      ShowMessage("……ちぃぱっぱ！")
      ShowMessageFace("stein_fc2",1,0,2,20)
      ShowMessage("【プロメスティン】")
      ShowMessage("成功です！")
      ShowMessageFace("lusia_fc1",0,0,2,21)
      ShowMessage("【ルシア】")
      ShowMessage("やりましたね！")
      250(bytes(0x04,0x08,0x6f,0x3a,0x0c,0x52,0x50,0x47,0x3a,0x3a,0x53,0x45,0x08,0x3a,0x0a,0x40,0x6e,0x61,0x6d,0x65,0x49,0x22,0x11,0x6d,0x6f,0x6e,0x5f,0x66,0x61,0x6e,0x66,0x61,0x6c,0x65,0x32,0x06,0x3a,0x06,0x45,0x54,0x3a,0x0b,0x40,0x70,0x69,0x74,0x63,0x68,0x69,0x69,0x3a,0x0c,0x40,0x76,0x6f,0x6c,0x75,0x6d,0x65,0x69,0x69))
      355("set_class_level(99, 214, 10, false, false)")
      655("set_class_level(99, 215, 10, false, true)")
      655("set_class_level(99, 217, 10, false, false)")
      ShowMessageFace("",0,0,2,22)
      ShowMessage("ギギはフェアリーに転種した！")
      ShowMessageFace("stein_fc2",1,0,2,23)
      ShowMessage("【プロメスティン】")
      ShowMessage("この成功により、人魚を妖精化する技術が確立しました。")
      ShowMessage("例によって種族「マーメイド」のランク10は必須ですよ。")
      ShowMessageFace("bunnyslime_fc1",0,0,2,24)
      ShowMessage("【うさ】")
      ShowMessage("ねぇねぇ、それは何エキスなの？")
      ShowMessageFace("stein_fc2",0,0,2,25)
      ShowMessage("【プロメスティン】")
      ShowMessage("えっと……なまずエキス、でしょう。")
      ShowMessageFace("sonia_fc4",0,0,2,26)
      ShowMessage("【ソニア】")
      ShowMessage("だんだん命名が苦しくなってきたわね……")
      ShowMessageFace("stein_fc2",1,0,2,27)
      ShowMessage("【プロメスティン】")
      ShowMessage("さあさあ、今後も研究を続けますよ！")
      ShowMessageFace("lusia_fc1",0,0,2,28)
      ShowMessage("【ルシア】")
      ShowMessage("もちろん、私もお手伝いしましょう。")
      ShowMessage("求道に終わりはありませんからね……")
      ShowMessageFace("namazu_fc1",0,0,2,29)
      ShowMessage("【ギギ】")
      ShowMessage("ちぃぱっぱ！　ちぃぱっぱ！")
      ShowMessageFace("sonia_fc4",0,0,2,30)
      ShowMessage("【ソニア】")
      ShowMessage("……………………")
      PictureClear(5)
      241(bytes(0x04,0x08,0x6f,0x3a,0x0d,0x52,0x50,0x47,0x3a,0x3a,0x42,0x47,0x4d,0x08,0x3a,0x0a,0x40,0x6e,0x61,0x6d,0x65,0x49,0x22,0x0c,0x63,0x61,0x73,0x74,0x6c,0x65,0x36,0x06,0x3a,0x06,0x45,0x54,0x3a,0x0c,0x40,0x76,0x6f,0x6c,0x75,0x6d,0x65,0x69,0x69,0x3a,0x0b,0x40,0x70,0x69,0x74,0x63,0x68,0x69,0x69))
      EndEventProcessing()
      0()
     EndIf()
     0()
    EndIf()
    0()
   EndIf()
   0()
  EndIf()
  0()
 EndIf()
 0()
EndIf()
If(1,1094,0,4,0)
 ShowMessageFace("stein_fc2",1,0,2,31)
 ShowMessage("【プロメスティン】")
 ShowMessage("ふふふふっ……")
 ShowMessage("異種族に関して、私に相談ですか？")
 ShowMessageFace("saki_fc1",0,0,2,32)
 ShowMessage("【サキ】")
 ShowMessage("サキ、海棲種が覚える固有ダンスを習得したいの☆")
 ShowMessageFace("wakame_fc1",1,0,2,33)
 ShowMessage("【わかめ】")
 ShowMessage("あたしも、海の踊りを覚えたいな……")
 ShowMessageFace("kaniloid_fc1",0,0,2,34)
 ShowMessage("【ジリアン】")
 ShowMessage("私は踊りに興味はないが……")
 ShowMessage("カニ型メカである以上、真のカニに近付きたいのだ。")
 ShowMessageFace("stein_fc2",1,0,2,35)
 ShowMessage("【プロメスティン】")
 ShowMessage("むふふふっ、海棲種になりたい方が三名も。")
 ShowMessage("それでは、この注射を――")
 ShowMessageFace("poseidones_fc1",0,0,2,36)
 ShowMessage("【ポセイドネス】")
 ShowMessage("ちょっと待った、早まってはならん！")
 ShowMessageFace("kraken_fc1",0,0,2,37)
 ShowMessage("【クラーケン】")
 ShowMessage("海の踊りを覚えたいなら、他に方法がありますよ。")
 ShowMessageFace("saki_fc1",0,0,2,38)
 ShowMessage("【サキ】")
 ShowMessage("なになに？　教えてほしいな☆")
 ShowMessageFace("wakame_fc1",1,0,2,39)
 ShowMessage("【わかめ】")
 ShowMessage("……ほしいな☆")
 ShowMessageFace("poseidones_fc1",0,0,2,40)
 ShowMessage("【ポセイドネス】")
 ShowMessage("いにしえより伝わる、竜宮の試練というものがある。")
 ShowMessage("この試練をクリアすれば、「竜宮の踊り」を会得できるだろう。")
 ShowMessageFace("kraken_fc1",0,0,2,41)
 ShowMessage("【クラーケン】")
 ShowMessage("竜宮の試練、我々が取りはからいましょう。")
 ShowMessage("これより、ナタリア海岸に向かうのです……")
 ShowMessageFace("saki_fc1",0,0,2,42)
 ShowMessage("【サキ】")
 ShowMessage("ナタリア海岸は、ナタリアポートの西だよね。")
 ShowMessage("それじゃあ、レッツゴー☆")
 ShowMessageFace("wakame_fc1",1,0,2,43)
 ShowMessage("【わかめ】")
 ShowMessage("レッツゴー☆")
 ShowMessageFace("kaniloid_fc1",2,0,2,44)
 ShowMessage("【ジリアン】")
 ShowMessage("私は、踊りなどどうでも良いのだが……")
 ShowMessageFace("stein_fc2",2,0,2,45)
 ShowMessage("【プロメスティン】")
 ShowMessage("ぐぬぬ、せっかくのチャンスが……")
 ShowMessageFace("ruka_fc1",0,0,2,46)
 ShowMessage("【ルカ】")
 ShowMessage("ともかく、ナタリア海岸に行ってみよう。")
 ShowMessage("竜宮の試練って、どんな試練なんだろうか……")
 ChangeVariable(1094,1094,0,0,5)
 PictureClear(5)
 241(bytes(0x04,0x08,0x6f,0x3a,0x0d,0x52,0x50,0x47,0x3a,0x3a,0x42,0x47,0x4d,0x08,0x3a,0x0a,0x40,0x6e,0x61,0x6d,0x65,0x49,0x22,0x0c,0x63,0x61,0x73,0x74,0x6c,0x65,0x36,0x06,0x3a,0x06,0x45,0x54,0x3a,0x0c,0x40,0x76,0x6f,0x6c,0x75,0x6d,0x65,0x69,0x69,0x3a,0x0b,0x40,0x70,0x69,0x74,0x63,0x68,0x69,0x69))
 EndEventProcessing()
 0()
EndIf()
If(1,1094,0,7,0)
 ShowMessageFace("stein_fc2",1,0,2,47)
 ShowMessage("【プロメスティン】")
 ShowMessage("他種族の特技を覚えたい、という方はいませんか？")
 ShowMessage("科学の力で解決しますよ♪")
 ShowMessageFace("highslag_fc1",0,0,2,48)
 ShowMessage("【エリザベス】")
 ShowMessage("より強い尖剣技を覚えたいから……")
 ShowMessage("私を妖魔にしてほしいのよ。")
 If(0,4,0)
  ShowMessageFace("alice_fc5",2,0,2,49)
  ShowMessage("【アリス】")
  ShowMessage("ちょっと待った！")
  ShowMessage("ここは、尖剣の試練というものを――")
  ShowMessageFace("stein_fc2",2,0,2,50)
  ShowMessage("【プロメスティン】")
  ShowMessage("試練など不要です！")
  ShowMessage("食らえ、精神論撲滅注射1号！")
  ShowMessageFace("alice_fc5",6,0,2,51)
  ShowMessage("【アリス】")
  ShowMessage("や、やめろー！")
  ShowMessageFace("alice_fc5",3,0,2,52)
  ShowMessage("【アリス】")
  ShowMessage("ＺＺＺ……")
  313(0,5,0,11)
  ShowMessageFace("",0,0,2,53)
  ShowMessage("アリスは眠ってしまった……")
  ShowMessageFace("stein_fc2",1,0,2,54)
  ShowMessage("【プロメスティン】")
  ShowMessage("ちょうど良いですね。")
  ShowMessage("魔王の血液を用いれば、目当ての薬剤が作れるはず。")
  ShowMessageFace("stein_fc2",1,0,2,55)
  ShowMessage("【プロメスティン】")
  ShowMessage("はい、採血して……")
  ShowMessage("これを、秘密のアレとソレに混ぜ混ぜして……")
  0()
 EndIf()
 If(0,5,0)
  ShowMessageFace("stein_fc2",1,0,2,56)
  ShowMessage("【プロメスティン】")
  ShowMessage("なるほど、分かりました。")
  ShowMessage("それでは、前に採取した魔王のDNAを使って製薬しましょう！")
  ShowMessageFace("iriasu_fc4",2,0,2,57)
  ShowMessage("【イリアス】")
  ShowMessage("アリスフィーズのDNAなど、どこで拾ったのです……？")
  ShowMessageFace("stein_fc2",1,0,2,58)
  ShowMessage("【プロメスティン】")
  ShowMessage("前に、グランドノアで宴があったでしょう？")
  ShowMessage("魔王が使用したグラスをくすね、DNAを採取しました。")
  ShowMessageFace("sonia_fc2",2,0,2,59)
  ShowMessage("【ソニア】")
  ShowMessage("なんか、怖っ……")
  ShowMessageFace("stein_fc2",1,0,2,60)
  ShowMessage("【プロメスティン】")
  ShowMessage("それでは、抽出した魔王のDNAを……")
  ShowMessage("秘密のアレとソレに混ぜ混ぜして……")
  0()
 EndIf()
 250(bytes(0x04,0x08,0x6f,0x3a,0x0c,0x52,0x50,0x47,0x3a,0x3a,0x53,0x45,0x08,0x3a,0x0a,0x40,0x6e,0x61,0x6d,0x65,0x49,0x22,0x11,0x6d,0x6f,0x6e,0x5f,0x66,0x61,0x6e,0x66,0x61,0x6c,0x65,0x32,0x06,0x3a,0x06,0x45,0x54,0x3a,0x0b,0x40,0x70,0x69,0x74,0x63,0x68,0x69,0x69,0x3a,0x0c,0x40,0x76,0x6f,0x6c,0x75,0x6d,0x65,0x69,0x69))
 ShowMessageFace("stein_fc2",1,0,2,61)
 ShowMessage("【プロメスティン】")
 ShowMessage("……できました！")
 ShowMessage("この薬剤を注射すれば、陸棲種が妖魔に転種できるはず！")
 ShowMessageFace("highslag_fc1",0,0,2,62)
 ShowMessage("【エリザベス】")
 ShowMessage("それじゃあ、やってもらえる？")
 ShowMessage("大丈夫、覚悟はできているわ……")
 ShowMessageFace("stein_fc2",1,0,2,63)
 ShowMessage("【プロメスティン】")
 ShowMessage("はい、腕を出して下さいね。")
 ShowMessage("……えいっ♪")
 ShowMessageFace("highslag_fc1",0,0,2,64)
 ShowMessage("【エリザベス】")
 ShowMessage("……………………")
 ShowMessageFace("highslag_fc1",1,0,2,65)
 ShowMessage("【エリザベス】")
 ShowMessage("燃えるような力を、体の中に感じるわ。")
 ShowMessage("これが妖魔のパワーなのね……")
 250(bytes(0x04,0x08,0x6f,0x3a,0x0c,0x52,0x50,0x47,0x3a,0x3a,0x53,0x45,0x08,0x3a,0x0a,0x40,0x6e,0x61,0x6d,0x65,0x49,0x22,0x11,0x6d,0x6f,0x6e,0x5f,0x66,0x61,0x6e,0x66,0x61,0x6c,0x65,0x32,0x06,0x3a,0x06,0x45,0x54,0x3a,0x0b,0x40,0x70,0x69,0x74,0x63,0x68,0x69,0x69,0x3a,0x0c,0x40,0x76,0x6f,0x6c,0x75,0x6d,0x65,0x69,0x69))
 355("set_class_level(85, 158, 10, false, false)")
 655("set_class_level(85, 159, 10, false, true)")
 ShowMessageFace("",0,0,2,66)
 ShowMessage("エリザベスは妖魔に転種した！")
 ShowMessageFace("stein_fc2",1,0,2,67)
 ShowMessage("【プロメスティン】")
 ShowMessage("実験は成功です！")
 ShowMessage("この薬剤の名前は……デーモンエキスとでもしましょうか。")
 ShowMessageFace("bunnyslime_fc1",2,0,2,68)
 ShowMessage("【うさ】")
 ShowMessage("そろそろ、お薬の名前もネタ切れだね……")
 ShowMessageFace("stein_fc2",2,0,2,69)
 ShowMessage("【プロメスティン】")
 ShowMessage("うさちゃんに指摘されてしまうなんて……")
 ShowMessageFace("ruka_fc1",0,0,2,70)
 ShowMessage("【ルカ】")
 ShowMessage("ともかくこれで、陸棲種が妖魔に転種できるようになったのか。")
 ShowMessage("プロメスティンの研究も、順調に進んでいるみたいだね。")
 ShowMessageFace("stein_fc2",1,0,2,71)
 ShowMessage("【プロメスティン】")
 ShowMessage("ええ、非常に良い感じです。")
 ShowMessage("このまま、最終的には……むふふっ。")
 ShowMessageFace("sonia_fc2",2,0,2,72)
 ShowMessage("【ソニア】")
 ShowMessage("なんか、怖っ……")
 If(0,4,0)
  ShowMessageFace("alice_fc5",3,0,2,73)
  ShowMessage("【アリス】")
  ShowMessage("ＺＺＺ……")
  0()
 EndIf()
 ChangeSwitch(1925,1925,0)
 ChangeVariable(1094,1094,0,0,8)
 PictureClear(5)
 241(bytes(0x04,0x08,0x6f,0x3a,0x0d,0x52,0x50,0x47,0x3a,0x3a,0x42,0x47,0x4d,0x08,0x3a,0x0a,0x40,0x6e,0x61,0x6d,0x65,0x49,0x22,0x0c,0x63,0x61,0x73,0x74,0x6c,0x65,0x36,0x06,0x3a,0x06,0x45,0x54,0x3a,0x0c,0x40,0x76,0x6f,0x6c,0x75,0x6d,0x65,0x69,0x69,0x3a,0x0b,0x40,0x70,0x69,0x74,0x63,0x68,0x69,0x69))
 EndEventProcessing()
 0()
EndIf()
DefineLabel("ループ")
ShowMessageFace("stein_fc2",1,0,2,74)
ShowMessage("【プロメスティン】")
ShowMessage("さて、どの種族に転種しますか……？")
355("ex_choice_add(\"Human→Vampire\",1)")
655("ex_choice_add(\"Slime→Beast\",2)")
655("ex_choice_add(\"Mermaid→Fairy\",3,")
655("\"s[1921]\",0)")
655("ex_choice_add(\"Beast→Elf\",4,")
655("\"s[1923]\",0)")
655("ex_choice_add(\"Alraune→Sea-Dweller\",5,")
655("\"s[1924]\",0)")
655("ex_choice_add(\"Land-Dweller→Yoma\",6,")
655("\"s[1925]\",0)")
655("ex_choice_add(\"Never Mind\",11)")
355("ex_choice_show(0,11,[0,0])")
If(1,9,0,1,0)
 ChangeVariable(11,11,0,3,0,317,0)
 ChangeVariable(12,12,0,3,0,224,0)
 ShowMessageFace("stein_fc2",1,0,2,75)
 ShowMessage("【プロメスティン】")
 ShowMessage("吸血鬼に転種するならば、にんにくエキスですね。")
 ShowMessage("「にんにく」3個と「夜の黒片」1個が必要です。")
 ShowMessageFace("",0,0,2,76)
 ShowMessage("Garlic (Have:\\V[11]）")
 ShowMessage("Pitch Black Fragment (Have:\\V[12]）")
 ShowMessage("以上を消費し、人間を吸血鬼に転種させますか？")
 ShowChoices(strings("Yes","No"),2)
 IfPlayerPicksChoice(0,null)
  If(1,11,0,3,1)
   If(1,12,0,1,1)
    ShowMessageFace("stein_fc2",1,0,2,77)
    ShowMessage("【プロメスティン】")
    ShowMessage("さてさて、誰ににんにくエキスを投与しますか？")
    ShowMessage("人間のランクが10に達していないと、投与できませんよ。")
    355("names = party_members.collect{|m|m.name}")
    655("unlimited_choices(11, names)")
    655("if $game_variables[11] != names.size")
    655("actor = party_members[$game_variables[11]]")
    655("$game_variables[12] = actor.id")
    655("else")
    655("$game_variables[12] = 0")
    655("end")
    If(1,12,0,0,0)
     JumpToLabel("ループ")
     0()
    EndIf()
    If(12,"actor_class_level_over?(v(12), 151, 10)")
     If(12,"actor_class_level_over?(v(12), 184, 1)")
      ShowMessageFace("stein_fc2",2,0,2,78)
      ShowMessage("【プロメスティン】")
      ShowMessage("すでに、吸血鬼の因子を宿しているようですね。")
      ShowMessage("残念ながら、投与できません……")
      JumpToLabel("ループ")
      0()
     Else()
      ShowMessageFace("stein_fc2",1,0,2,79)
      ShowMessage("【プロメスティン】")
      ShowMessage("それではいきますよ！　さぁさぁ、腕を出して……！")
      ChangeInventory_Item(317,1,0,3)
      ChangeInventory_Item(224,1,0,1)
      355("set_class_level(v(12), 184, 1, true, true)")
      250(bytes(0x04,0x08,0x6f,0x3a,0x0c,0x52,0x50,0x47,0x3a,0x3a,0x53,0x45,0x08,0x3a,0x0a,0x40,0x6e,0x61,0x6d,0x65,0x49,0x22,0x10,0x6d,0x6f,0x6e,0x5f,0x66,0x61,0x6e,0x66,0x61,0x6c,0x65,0x06,0x3a,0x06,0x45,0x54,0x3a,0x0b,0x40,0x70,0x69,0x74,0x63,0x68,0x69,0x69,0x3a,0x0c,0x40,0x76,0x6f,0x6c,0x75,0x6d,0x65,0x69,0x69))
      ShowMessageFace("",0,0,2,80)
      ShowMessage("吸血鬼に転種した！")
      ShowMessageFace("stein_fc2",1,0,2,81)
      ShowMessage("【プロメスティン】")
      ShowMessage("ふふふっ、大成功です！")
      JumpToLabel("ループ")
      0()
     EndIf()
     0()
    Else()
     ShowMessageFace("stein_fc2",2,0,2,82)
     ShowMessage("【プロメスティン】")
     ShowMessage("あれれ、人間のランクが10に達していませんよ。")
     ShowMessage("多分死ぬので、残念ながら投与できません……")
     JumpToLabel("ループ")
     0()
    EndIf()
    0()
   EndIf()
   0()
  EndIf()
  ShowMessageFace("stein_fc2",2,0,2,83)
  ShowMessage("【プロメスティン】")
  ShowMessage("あっ……素材が足りないみたいですね。")
  ShowMessage("申し訳ありませんが、材料不足でエキスが作れません。")
  JumpToLabel("ループ")
  0()
 IfPlayerPicksChoice(1,null)
  JumpToLabel("ループ")
  0()
 404()
 0()
EndIf()
If(1,9,0,2,0)
 ChangeVariable(11,11,0,3,0,310,0)
 ChangeVariable(12,12,0,3,0,238,0)
 ShowMessageFace("stein_fc2",1,0,2,84)
 ShowMessage("【プロメスティン】")
 ShowMessage("魔獣に転種するならば、にんじんエキスですね。")
 ShowMessage("「にんじん」3個と「狂獣の爪」1個が必要です。")
 ShowMessageFace("",0,0,2,85)
 ShowMessage("Carrot (Have:\\V[11]）")
 ShowMessage("Feral Beast Claw (Have:\\V[12]）")
 ShowMessage("以上を消費し、スライムを魔獣に転種させますか？")
 ShowChoices(strings("Yes","No"),2)
 IfPlayerPicksChoice(0,null)
  If(1,11,0,3,1)
   If(1,12,0,1,1)
    ShowMessageFace("stein_fc2",1,0,2,86)
    ShowMessage("【プロメスティン】")
    ShowMessage("さてさて、誰ににんじんエキスを投与しますか？")
    ShowMessage("スライムのランクが10に達していないと、投与できませんよ。")
    355("names = party_members.collect{|m|m.name}")
    655("unlimited_choices(11, names)")
    655("if $game_variables[11] != names.size")
    655("actor = party_members[$game_variables[11]]")
    655("$game_variables[12] = actor.id")
    655("else")
    655("$game_variables[12] = 0")
    655("end")
    If(1,12,0,0,0)
     JumpToLabel("ループ")
     0()
    EndIf()
    If(12,"actor_class_level_over?(v(12), 223, 10)")
     If(12,"actor_class_level_over?(v(12), 232, 1)")
      ShowMessageFace("stein_fc2",2,0,2,87)
      ShowMessage("【プロメスティン】")
      ShowMessage("すでに、魔獣の因子を宿しているようですね。")
      ShowMessage("残念ながら、投与できません……")
      JumpToLabel("ループ")
      0()
     Else()
      ShowMessageFace("stein_fc2",1,0,2,88)
      ShowMessage("【プロメスティン】")
      ShowMessage("それではいきますよ！　さぁさぁ、腕を出して……！")
      ChangeInventory_Item(310,1,0,3)
      ChangeInventory_Item(238,1,0,1)
      355("set_class_level(v(12), 232, 1, true, true)")
      250(bytes(0x04,0x08,0x6f,0x3a,0x0c,0x52,0x50,0x47,0x3a,0x3a,0x53,0x45,0x08,0x3a,0x0a,0x40,0x6e,0x61,0x6d,0x65,0x49,0x22,0x10,0x6d,0x6f,0x6e,0x5f,0x66,0x61,0x6e,0x66,0x61,0x6c,0x65,0x06,0x3a,0x06,0x45,0x54,0x3a,0x0b,0x40,0x70,0x69,0x74,0x63,0x68,0x69,0x69,0x3a,0x0c,0x40,0x76,0x6f,0x6c,0x75,0x6d,0x65,0x69,0x69))
      ShowMessageFace("",0,0,2,89)
      ShowMessage("魔獣に転種した！")
      ShowMessageFace("stein_fc2",1,0,2,90)
      ShowMessage("【プロメスティン】")
      ShowMessage("ふふふっ、大成功です！")
      JumpToLabel("ループ")
      0()
     EndIf()
     0()
    Else()
     ShowMessageFace("stein_fc2",2,0,2,91)
     ShowMessage("【プロメスティン】")
     ShowMessage("あれれ、スライムのランクが10に達していませんよ。")
     ShowMessage("多分死ぬので、残念ながら投与できません……")
     JumpToLabel("ループ")
     0()
    EndIf()
    0()
   EndIf()
   0()
  EndIf()
  ShowMessageFace("stein_fc2",2,0,2,92)
  ShowMessage("【プロメスティン】")
  ShowMessage("あっ……素材が足りないみたいですね。")
  ShowMessage("申し訳ありませんが、材料不足でエキスが作れません。")
  JumpToLabel("ループ")
  0()
 IfPlayerPicksChoice(1,null)
  JumpToLabel("ループ")
  0()
 404()
 0()
EndIf()
If(1,9,0,3,0)
 ChangeVariable(11,11,0,3,0,328,0)
 ChangeVariable(12,12,0,3,0,229,0)
 ShowMessageFace("stein_fc2",1,0,2,93)
 ShowMessage("【プロメスティン】")
 ShowMessage("フェアリーに転種するならば、なまずエキスですね。")
 ShowMessage("「うなぎ」3個と「精霊のどんぐり」1個が必要です。")
 ShowMessageFace("",0,0,2,94)
 ShowMessage("Eel (Have:\\V[11])")
 ShowMessage("Spirit Acorn (Have:\\V[12])")
 ShowMessage("以上を消費し、マーメイドをフェアリーに転種させますか？")
 ShowChoices(strings("Yes","No"),2)
 IfPlayerPicksChoice(0,null)
  If(1,11,0,3,1)
   If(1,12,0,1,1)
    ShowMessageFace("stein_fc2",1,0,2,95)
    ShowMessage("【プロメスティン】")
    ShowMessage("さてさて、誰になまずエキスを投与しますか？")
    ShowMessage("種族「マーメイド」のランクが10に達していないと、投与できませんよ。")
    355("names = party_members.collect{|m|m.name}")
    655("unlimited_choices(11, names)")
    655("if $game_variables[11] != names.size")
    655("actor = party_members[$game_variables[11]]")
    655("$game_variables[12] = actor.id")
    655("else")
    655("$game_variables[12] = 0")
    655("end")
    If(1,12,0,0,0)
     JumpToLabel("ループ")
     0()
    EndIf()
    If(12,"actor_class_level_over?(v(12), 194, 10)")
     If(12,"actor_class_level_over?(v(12), 214, 1)")
      ShowMessageFace("stein_fc2",2,0,2,96)
      ShowMessage("【プロメスティン】")
      ShowMessage("すでに、フェアリーの因子を宿しているようですね。")
      ShowMessage("残念ながら、投与できません……")
      JumpToLabel("ループ")
      0()
     Else()
      ShowMessageFace("stein_fc2",1,0,2,97)
      ShowMessage("【プロメスティン】")
      ShowMessage("それではいきますよ！　さぁさぁ、腕を出して……！")
      ChangeInventory_Item(328,1,0,3)
      ChangeInventory_Item(229,1,0,1)
      355("set_class_level(v(12), 214, 1, true, true)")
      250(bytes(0x04,0x08,0x6f,0x3a,0x0c,0x52,0x50,0x47,0x3a,0x3a,0x53,0x45,0x08,0x3a,0x0a,0x40,0x6e,0x61,0x6d,0x65,0x49,0x22,0x10,0x6d,0x6f,0x6e,0x5f,0x66,0x61,0x6e,0x66,0x61,0x6c,0x65,0x06,0x3a,0x06,0x45,0x54,0x3a,0x0b,0x40,0x70,0x69,0x74,0x63,0x68,0x69,0x69,0x3a,0x0c,0x40,0x76,0x6f,0x6c,0x75,0x6d,0x65,0x69,0x69))
      ShowMessageFace("",0,0,2,98)
      ShowMessage("フェアリーに転種した！")
      ShowMessageFace("stein_fc2",1,0,2,99)
      ShowMessage("【プロメスティン】")
      ShowMessage("ふふふっ、大成功です！")
      JumpToLabel("ループ")
      0()
     EndIf()
     0()
    Else()
     ShowMessageFace("stein_fc2",2,0,2,100)
     ShowMessage("【プロメスティン】")
     ShowMessage("あれれ、マーメイドのランクが10に達していませんよ。")
     ShowMessage("多分死ぬので、残念ながら投与できません……")
     JumpToLabel("ループ")
     0()
    EndIf()
    0()
   EndIf()
   0()
  EndIf()
  ShowMessageFace("stein_fc2",2,0,2,101)
  ShowMessage("【プロメスティン】")
  ShowMessage("あっ……素材が足りないみたいですね。")
  ShowMessage("申し訳ありませんが、材料不足でエキスが作れません。")
  JumpToLabel("ループ")
  0()
 IfPlayerPicksChoice(1,null)
  JumpToLabel("ループ")
  0()
 404()
 0()
EndIf()
If(1,9,0,4,0)
 ChangeVariable(11,11,0,3,0,445,0)
 ChangeVariable(12,12,0,3,0,230,0)
 ShowMessageFace("stein_fc2",1,0,2,102)
 ShowMessage("【プロメスティン】")
 ShowMessage("エルフに転種するならば、森エキスですね。")
 ShowMessage("「雑草」3個と「涙の魔石」1個が必要です。")
 ShowMessageFace("",0,0,2,103)
 ShowMessage("Weed (Have:\\V[11])")
 ShowMessage("Magic Crystallized Tears (Have:\\V[12])")
 ShowMessage("以上を消費し、魔獣をエルフに転種させますか？")
 ShowChoices(strings("はい","いいえ"),2)
 IfPlayerPicksChoice(0,null)
  If(1,11,0,3,1)
   If(1,12,0,1,1)
    ShowMessageFace("stein_fc2",1,0,2,104)
    ShowMessage("【プロメスティン】")
    ShowMessage("さてさて、誰に森エキスを投与しますか？")
    ShowMessage("種族「魔獣」のランクが10に達していないと、投与できませんよ。")
    355("names = party_members.collect{|m|m.name}")
    655("unlimited_choices(11, names)")
    655("if $game_variables[11] != names.size")
    655("actor = party_members[$game_variables[11]]")
    655("$game_variables[12] = actor.id")
    655("else")
    655("$game_variables[12] = 0")
    655("end")
    If(1,12,0,0,0)
     JumpToLabel("ループ")
     0()
    EndIf()
    If(12,"actor_class_level_over?(v(12), 232, 10)")
     If(12,"actor_class_level_over?(v(12), 203, 1)")
      ShowMessageFace("stein_fc2",2,0,2,105)
      ShowMessage("【プロメスティン】")
      ShowMessage("すでに、エルフの因子を宿しているようですね。")
      ShowMessage("残念ながら、投与できません……")
      JumpToLabel("ループ")
      0()
     Else()
      ShowMessageFace("stein_fc2",1,0,2,106)
      ShowMessage("【プロメスティン】")
      ShowMessage("それではいきますよ！　さぁさぁ、腕を出して……！")
      ChangeInventory_Item(445,1,0,3)
      ChangeInventory_Item(230,1,0,1)
      355("set_class_level(v(12), 203, 1, true, true)")
      250(bytes(0x04,0x08,0x6f,0x3a,0x0c,0x52,0x50,0x47,0x3a,0x3a,0x53,0x45,0x08,0x3a,0x0a,0x40,0x6e,0x61,0x6d,0x65,0x49,0x22,0x10,0x6d,0x6f,0x6e,0x5f,0x66,0x61,0x6e,0x66,0x61,0x6c,0x65,0x06,0x3a,0x06,0x45,0x54,0x3a,0x0b,0x40,0x70,0x69,0x74,0x63,0x68,0x69,0x69,0x3a,0x0c,0x40,0x76,0x6f,0x6c,0x75,0x6d,0x65,0x69,0x69))
      ShowMessageFace("",0,0,2,107)
      ShowMessage("エルフに転種した！")
      ShowMessageFace("stein_fc2",1,0,2,108)
      ShowMessage("【プロメスティン】")
      ShowMessage("ふふふっ、大成功です！")
      JumpToLabel("ループ")
      0()
     EndIf()
     0()
    Else()
     ShowMessageFace("stein_fc2",2,0,2,109)
     ShowMessage("【プロメスティン】")
     ShowMessage("あれれ、魔獣のランクが10に達していませんよ。")
     ShowMessage("多分死ぬので、残念ながら投与できません……")
     JumpToLabel("ループ")
     0()
    EndIf()
    0()
   EndIf()
   0()
  EndIf()
  ShowMessageFace("stein_fc2",2,0,2,110)
  ShowMessage("【プロメスティン】")
  ShowMessage("あっ……素材が足りないみたいですね。")
  ShowMessage("申し訳ありませんが、材料不足でエキスが作れません。")
  JumpToLabel("ループ")
  0()
 IfPlayerPicksChoice(1,null)
  JumpToLabel("ループ")
  0()
 404()
 0()
EndIf()
If(1,9,0,5,0)
 ChangeVariable(11,11,0,3,0,433,0)
 ChangeVariable(12,12,0,3,0,202,0)
 ShowMessageFace("stein_fc2",1,0,2,111)
 ShowMessage("【プロメスティン】")
 ShowMessage("海棲種に転種するならば、スルメエキスですね。")
 ShowMessage("「スルメ」3個と「巻き付く触手」1個が必要です。")
 ShowMessageFace("",0,0,2,112)
 ShowMessage("Dried Squid (Have:\\V[11])")
 ShowMessage("Coiling Tentacle (Have:\\V[12])")
 ShowMessage("以上を消費し、植物を海棲種に転種させますか？")
 ShowChoices(strings("はい","いいえ"),2)
 IfPlayerPicksChoice(0,null)
  If(1,11,0,3,1)
   If(1,12,0,1,1)
    ShowMessageFace("stein_fc2",1,0,2,113)
    ShowMessage("【プロメスティン】")
    ShowMessage("さてさて、誰にスルメエキスを投与しますか？")
    ShowMessage("種族「アルラウネ」のランクが10に達していないと、投与できませんよ。")
    355("names = party_members.collect{|m|m.name}")
    655("unlimited_choices(11, names)")
    655("if $game_variables[11] != names.size")
    655("actor = party_members[$game_variables[11]]")
    655("$game_variables[12] = actor.id")
    655("else")
    655("$game_variables[12] = 0")
    655("end")
    If(1,12,0,0,0)
     JumpToLabel("ループ")
     0()
    EndIf()
    If(12,"actor_class_level_over?(v(12), 319, 10)")
     If(12,"actor_class_level_over?(v(12), 301, 1)")
      ShowMessageFace("stein_fc2",2,0,2,114)
      ShowMessage("【プロメスティン】")
      ShowMessage("すでに、海棲種の因子を宿しているようですね。")
      ShowMessage("残念ながら、投与できません……")
      JumpToLabel("ループ")
      0()
     Else()
      ShowMessageFace("stein_fc2",1,0,2,115)
      ShowMessage("【プロメスティン】")
      ShowMessage("それではいきますよ！　さぁさぁ、腕を出して……！")
      ChangeInventory_Item(433,1,0,3)
      ChangeInventory_Item(202,1,0,1)
      355("set_class_level(v(12), 301, 1, true, true)")
      250(bytes(0x04,0x08,0x6f,0x3a,0x0c,0x52,0x50,0x47,0x3a,0x3a,0x53,0x45,0x08,0x3a,0x0a,0x40,0x6e,0x61,0x6d,0x65,0x49,0x22,0x10,0x6d,0x6f,0x6e,0x5f,0x66,0x61,0x6e,0x66,0x61,0x6c,0x65,0x06,0x3a,0x06,0x45,0x54,0x3a,0x0b,0x40,0x70,0x69,0x74,0x63,0x68,0x69,0x69,0x3a,0x0c,0x40,0x76,0x6f,0x6c,0x75,0x6d,0x65,0x69,0x69))
      ShowMessageFace("",0,0,2,116)
      ShowMessage("海棲種に転種した！")
      ShowMessageFace("stein_fc2",1,0,2,117)
      ShowMessage("【プロメスティン】")
      ShowMessage("ふふふっ、大成功です！")
      JumpToLabel("ループ")
      0()
     EndIf()
     0()
    Else()
     ShowMessageFace("stein_fc2",2,0,2,118)
     ShowMessage("【プロメスティン】")
     ShowMessage("あれれ、アルラウネのランクが10に達していませんよ。")
     ShowMessage("多分死ぬので、残念ながら投与できません……")
     JumpToLabel("ループ")
     0()
    EndIf()
    0()
   EndIf()
   0()
  EndIf()
  ShowMessageFace("stein_fc2",2,0,2,119)
  ShowMessage("【プロメスティン】")
  ShowMessage("あっ……素材が足りないみたいですね。")
  ShowMessage("申し訳ありませんが、材料不足でエキスが作れません。")
  JumpToLabel("ループ")
  0()
 IfPlayerPicksChoice(1,null)
  JumpToLabel("ループ")
  0()
 404()
 0()
EndIf()
If(1,9,0,6,0)
 ChangeVariable(11,11,0,3,0,444,0)
 ChangeVariable(12,12,0,3,0,236,0)
 ShowMessageFace("stein_fc2",1,0,2,120)
 ShowMessage("【プロメスティン】")
 ShowMessage("妖魔に転種するならば、デーモンエキスですね。")
 ShowMessage("「ドクロ」3個と「妖力の結晶」1個が必要です。")
 ShowMessageFace("",0,0,2,121)
 ShowMessage("Skull (Have:\\V[11])")
 ShowMessage("Spirit Crystal (Have:\\V[12])")
 ShowMessage("以上を消費し、陸棲種を妖魔に転種させますか？")
 ShowChoices(strings("はい","いいえ"),2)
 IfPlayerPicksChoice(0,null)
  If(1,11,0,3,1)
   If(1,12,0,1,1)
    ShowMessageFace("stein_fc2",1,0,2,122)
    ShowMessage("【プロメスティン】")
    ShowMessage("さてさて、誰にデーモンエキスを投与しますか？")
    ShowMessage("種族「陸棲種」のランクが10に達していないと、投与できませんよ。")
    355("names = party_members.collect{|m|m.name}")
    655("unlimited_choices(11, names)")
    655("if $game_variables[11] != names.size")
    655("actor = party_members[$game_variables[11]]")
    655("$game_variables[12] = actor.id")
    655("else")
    655("$game_variables[12] = 0")
    655("end")
    If(1,12,0,0,0)
     JumpToLabel("ループ")
     0()
    EndIf()
    If(12,"actor_class_level_over?(v(12), 293, 10)")
     If(12,"actor_class_level_over?(v(12), 158, 1)")
      ShowMessageFace("stein_fc2",2,0,2,123)
      ShowMessage("【プロメスティン】")
      ShowMessage("すでに、妖魔の因子を宿しているようですね。")
      ShowMessage("残念ながら、投与できません……")
      JumpToLabel("ループ")
      0()
     Else()
      ShowMessageFace("stein_fc2",1,0,2,124)
      ShowMessage("【プロメスティン】")
      ShowMessage("それではいきますよ！　さぁさぁ、腕を出して……！")
      ChangeInventory_Item(444,1,0,3)
      ChangeInventory_Item(236,1,0,1)
      355("set_class_level(v(12), 158, 1, true, true)")
      250(bytes(0x04,0x08,0x6f,0x3a,0x0c,0x52,0x50,0x47,0x3a,0x3a,0x53,0x45,0x08,0x3a,0x0a,0x40,0x6e,0x61,0x6d,0x65,0x49,0x22,0x10,0x6d,0x6f,0x6e,0x5f,0x66,0x61,0x6e,0x66,0x61,0x6c,0x65,0x06,0x3a,0x06,0x45,0x54,0x3a,0x0b,0x40,0x70,0x69,0x74,0x63,0x68,0x69,0x69,0x3a,0x0c,0x40,0x76,0x6f,0x6c,0x75,0x6d,0x65,0x69,0x69))
      ShowMessageFace("",0,0,2,125)
      ShowMessage("妖魔に転種した！")
      ShowMessageFace("stein_fc2",1,0,2,126)
      ShowMessage("【プロメスティン】")
      ShowMessage("ふふふっ、大成功です！")
      JumpToLabel("ループ")
      0()
     EndIf()
     0()
    Else()
     ShowMessageFace("stein_fc2",2,0,2,127)
     ShowMessage("【プロメスティン】")
     ShowMessage("あれれ、陸棲種のランクが10に達していませんよ。")
     ShowMessage("多分死ぬので、残念ながら投与できません……")
     JumpToLabel("ループ")
     0()
    EndIf()
    0()
   EndIf()
   0()
  EndIf()
  ShowMessageFace("stein_fc2",2,0,2,128)
  ShowMessage("【プロメスティン】")
  ShowMessage("あっ……素材が足りないみたいですね。")
  ShowMessage("申し訳ありませんが、材料不足でエキスが作れません。")
  JumpToLabel("ループ")
  0()
 IfPlayerPicksChoice(1,null)
  JumpToLabel("ループ")
  0()
 404()
 0()
EndIf()
PictureClear(5)
241(bytes(0x04,0x08,0x6f,0x3a,0x0d,0x52,0x50,0x47,0x3a,0x3a,0x42,0x47,0x4d,0x08,0x3a,0x0a,0x40,0x6e,0x61,0x6d,0x65,0x49,0x22,0x0c,0x63,0x61,0x73,0x74,0x6c,0x65,0x36,0x06,0x3a,0x06,0x45,0x54,0x3a,0x0c,0x40,0x76,0x6f,0x6c,0x75,0x6d,0x65,0x69,0x69,0x3a,0x0b,0x40,0x70,0x69,0x74,0x63,0x68,0x69,0x69))
EndEventProcessing()
0()
